{
	"info": {
		"_postman_id": "2645353c-953e-4b93-b6af-bfba4d8d8343",
		"name": "IPFS_collection",
		"schema": "https://schema.getpostman.com/json/collection/v2.0.0/collection.json"
	},
	"item": [
		{
			"name": "ipfs_webui",
			"request": {
				"method": "GET",
				"header": [],
				"body": {
					"mode": "raw",
					"raw": ""
				},
				"url": "http://127.0.0.1:5001/webui"
			},
			"response": []
		},
		{
			"name": "ipfs_gateway",
			"request": {
				"method": "GET",
				"header": [],
				"body": {
					"mode": "raw",
					"raw": ""
				},
				"url": {
					"raw": "http://0.0.0.0:8080/ipfs/:filehash",
					"protocol": "http",
					"host": [
						"0",
						"0",
						"0",
						"0"
					],
					"port": "8080",
					"path": [
						"ipfs",
						":filehash"
					],
					"variable": [
						{
							"key": "filehash",
							"value": "QmYQvcj6ckotTDUkzxVmXZm8CvEe8oZ4vmuHa6zgvDquQh"
						}
					]
				}
			},
			"response": []
		},
		{
			"name": "gateway.ipfs.io",
			"request": {
				"method": "GET",
				"header": [],
				"body": {
					"mode": "raw",
					"raw": ""
				},
				"url": {
					"raw": "https://gateway.ipfs.io/ipfs/:filehash",
					"protocol": "https",
					"host": [
						"gateway",
						"ipfs",
						"io"
					],
					"path": [
						"ipfs",
						":filehash"
					],
					"variable": [
						{
							"key": "filehash",
							"value": "QmV9tSDx9UiPeWExXEeH6aoDvmihvx6jD5eLb4jbTaKGps"
						}
					]
				}
			},
			"response": []
		}
	]
}