\relax 
\citation{SOS13:SDN,KRV15:Software}
\citation{MAB08:Openflow}
\citation{HHB14:A}
\citation{MAB08:Openflow}
\citation{D59:A}
\citation{R18:Ryu}
\citation{M18:Mininet}
\@writefile{toc}{\contentsline {section}{\numberline {I}Introduction}{1}}
\citation{VKA15:Resilient,GS16:Efficient,AAK14:Fast,SSC11:Enabling,BMM18:Destination}
\citation{L18:Link}
\citation{J18:New}
\citation{M18:Mininet}
\citation{KMS15:Independent}
\citation{MKC10:Ethernet}
\citation{TV14:IGP}
\citation{LZC16:An}
\citation{LTH16:Fast}
\citation{BQR17:SDN,AM17:Multipath}
\@writefile{toc}{\contentsline {section}{\numberline {II}Background and related work}{2}}
\citation{D59:A}
\@writefile{toc}{\contentsline {section}{\numberline {III}SDN architecture}{3}}
\@writefile{lof}{\contentsline {figure}{\numberline {1}{\ignorespaces Openflow architecture.}}{3}}
\newlabel{fig:architecture}{{1}{3}}
\@writefile{lof}{\contentsline {figure}{\numberline {2}{\ignorespaces Path computation algorithm flowchart.}}{3}}
\newlabel{fig:path}{{2}{3}}
\@writefile{toc}{\contentsline {subsection}{\numberline {\unhbox \voidb@x \hbox {III-A}}Path computation algorithm}{3}}
\@writefile{toc}{\contentsline {subsection}{\numberline {\unhbox \voidb@x \hbox {III-B}}Link Recovery Module}{4}}
\@writefile{lof}{\contentsline {figure}{\numberline {3}{\ignorespaces Congestion detection algorithm flowchart.}}{4}}
\newlabel{fig:detection}{{3}{4}}
\@writefile{toc}{\contentsline {subsection}{\numberline {\unhbox \voidb@x \hbox {III-C}}Congestion Detection Algorithm}{4}}
\@writefile{lof}{\contentsline {figure}{\numberline {4}{\ignorespaces Congestion control algorithm flowchart.}}{4}}
\newlabel{fig:control}{{4}{4}}
\@writefile{toc}{\contentsline {subsection}{\numberline {\unhbox \voidb@x \hbox {III-D}}Congestion control algorithm}{4}}
\@writefile{toc}{\contentsline {section}{\numberline {IV}Implementation}{5}}
\@writefile{lof}{\contentsline {figure}{\numberline {5}{\ignorespaces A sample topology.}}{5}}
\newlabel{fig:solution}{{5}{5}}
\@writefile{toc}{\contentsline {subsection}{\numberline {\unhbox \voidb@x \hbox {IV-A}}Dijkstra algorithm}{5}}
\@writefile{toc}{\contentsline {subsection}{\numberline {\unhbox \voidb@x \hbox {IV-B}}Topology file}{5}}
\@writefile{lof}{\contentsline {figure}{\numberline {6}{\ignorespaces Setting up the topology using Mininet.}}{5}}
\newlabel{fig:topology_setup}{{6}{5}}
\@writefile{lof}{\contentsline {figure}{\numberline {7}{\ignorespaces Time for link recovery.}}{6}}
\newlabel{fig:simulation}{{7}{6}}
\@writefile{lof}{\contentsline {figure}{\numberline {8}{\ignorespaces Recovery Time for conventional method.}}{6}}
\newlabel{fig:simulation1}{{8}{6}}
\@writefile{toc}{\contentsline {subsection}{\numberline {\unhbox \voidb@x \hbox {IV-C}}OpenFlow Groups}{6}}
\@writefile{lof}{\contentsline {figure}{\numberline {9}{\ignorespaces Fast failover group type.}}{6}}
\newlabel{fig:group_type}{{9}{6}}
\@writefile{toc}{\contentsline {section}{\numberline {V}Experiments and results}{6}}
\@writefile{toc}{\contentsline {subsection}{\numberline {\unhbox \voidb@x \hbox {V-A}}Performance analysis of link restoration method (conventional)}{7}}
\@writefile{lof}{\contentsline {figure}{\numberline {10}{\ignorespaces Analysis of ICMP traffic.}}{7}}
\newlabel{fig:ICMP_traffic}{{10}{7}}
\@writefile{toc}{\contentsline {subsubsection}{\numberline {\unhbox \voidb@x \hbox {V-A}1}Analysis of ICMP traffic}{7}}
\@writefile{lof}{\contentsline {figure}{\numberline {11}{\ignorespaces Analysis of TCP traffic.}}{7}}
\newlabel{fig:TCP_traffic}{{11}{7}}
\@writefile{toc}{\contentsline {subsubsection}{\numberline {\unhbox \voidb@x \hbox {V-A}2}Analysis of TCP packets}{7}}
\@writefile{toc}{\contentsline {subsection}{\numberline {\unhbox \voidb@x \hbox {V-B}}Performance analysis of link failure recovery module (proactive method)}{7}}
\bibcite{SOS13:SDN}{1}
\bibcite{KRV15:Software}{2}
\bibcite{MAB08:Openflow}{3}
\bibcite{HHB14:A}{4}
\bibcite{D59:A}{5}
\bibcite{SSC11:Enabling}{6}
\bibcite{LTH16:Fast}{7}
\@writefile{lof}{\contentsline {figure}{\numberline {12}{\ignorespaces Performance Analysis for Proposed Method.}}{8}}
\newlabel{fig:proactive_method}{{12}{8}}
\@writefile{lof}{\contentsline {figure}{\numberline {13}{\ignorespaces Performance comparison based on the size of the topology.}}{8}}
\newlabel{fig:perf2}{{13}{8}}
\@writefile{lof}{\contentsline {figure}{\numberline {14}{\ignorespaces Performance comparison based on the number of failed links.}}{8}}
\newlabel{fig:perf1}{{14}{8}}
\@writefile{toc}{\contentsline {section}{\numberline {VI}Conclusion}{8}}
\@writefile{toc}{\contentsline {section}{References}{8}}
\bibcite{R18:Ryu}{8}
\bibcite{J18:New}{9}
\bibcite{M18:Mininet}{10}
\bibcite{LZC16:An}{11}
\bibcite{AAK14:Fast}{12}
\bibcite{TV14:IGP}{13}
\bibcite{L18:Link}{14}
\bibcite{MKC10:Ethernet}{15}
\bibcite{KMS15:Independent}{16}
\bibcite{GS16:Efficient}{17}
\bibcite{VKA15:Resilient}{18}
\bibcite{BMM18:Destination}{19}
\bibcite{AM17:Multipath}{20}
\bibcite{BQR17:SDN}{21}
