\relax 
\citation{YKCD18:secure}
\citation{MMKPM18:Authentication}
\citation{KV18:Blockchain}
\citation{L17:Bidaas}
\@writefile{toc}{\contentsline {section}{\numberline {I}Introduction}{1}}
\citation{S14:Privacy}
\citation{DP18:First}
\@writefile{toc}{\contentsline {section}{\numberline {II}Related Work}{2}}
\newlabel{sec.overview}{{II}{2}}
\@writefile{toc}{\contentsline {section}{\numberline {III}Technologies Used}{2}}
\@writefile{lof}{\contentsline {figure}{\numberline {1}{\ignorespaces Blockchain Diagram}}{2}}
\newlabel{fig:bd}{{1}{2}}
\citation{ACGMPS18:Make}
\@writefile{lof}{\contentsline {figure}{\numberline {2}{\ignorespaces System Architecture I.}}{3}}
\newlabel{fig:arch1}{{2}{3}}
\@writefile{lof}{\contentsline {figure}{\numberline {3}{\ignorespaces System Architecture II.}}{3}}
\newlabel{fig:arch1}{{3}{3}}
\@writefile{toc}{\contentsline {section}{\numberline {IV}System Design}{3}}
\citation{WZZ18:Blockchain}
\citation{CLLZ17:Under}
\citation{L12:Evaluation}
\citation{RD17:Performance}
\@writefile{lof}{\contentsline {figure}{\numberline {4}{\ignorespaces System Design II.}}{4}}
\newlabel{fig:design2}{{4}{4}}
\@writefile{toc}{\contentsline {subsubsection}{\numberline {\unhbox \voidb@x \hbox {IV-}1}Student}{4}}
\@writefile{toc}{\contentsline {subsubsection}{\numberline {\unhbox \voidb@x \hbox {IV-}2}Validator}{4}}
\@writefile{toc}{\contentsline {subsubsection}{\numberline {\unhbox \voidb@x \hbox {IV-}3}Requestor}{4}}
\@writefile{toc}{\contentsline {subsection}{\numberline {\unhbox \voidb@x \hbox {IV-A}}User Interface Implementation}{4}}
\@writefile{toc}{\contentsline {subsection}{\numberline {\unhbox \voidb@x \hbox {IV-B}}Smart Contract Implementation}{4}}
\@writefile{toc}{\contentsline {section}{\numberline {V}Conclusion}{4}}
\newlabel{sec.conclusion}{{V}{4}}
\bibcite{YKCD18:secure}{1}
\bibcite{MMKPM18:Authentication}{2}
\bibcite{L17:Bidaas}{3}
\bibcite{S14:Privacy}{4}
\bibcite{DP18:First}{5}
\bibcite{ACGMPS18:Make}{6}
\bibcite{WZZ18:Blockchain}{7}
\bibcite{CLLZ17:Under}{8}
\bibcite{KV18:Blockchain}{9}
\bibcite{L12:Evaluation}{10}
\bibcite{RD17:Performance}{11}
\@writefile{lot}{\contentsline {table}{\numberline {I}{\ignorespaces Comparision between Ethereum and Hyperledger Fabric}}{5}}
\newlabel{table:1}{{I}{5}}
\@writefile{toc}{\contentsline {section}{References}{5}}
