\relax 
\@writefile{toc}{\contentsline {section}{\numberline {I}Introduction}{1}}
\@writefile{toc}{\contentsline {section}{\numberline {II}Motivation}{1}}
\citation{HWG12:BalanceFlow,SSC11:Enabling,MAB08:Openflow,KMS15:Independent}
\citation{AAK14:Fast}
\@writefile{toc}{\contentsline {section}{\numberline {III}Related work}{2}}
\@writefile{toc}{\contentsline {section}{\numberline {IV}Proposed architecture}{2}}
\@writefile{lof}{\contentsline {figure}{\numberline {1}{\ignorespaces Proposed architecture.}}{2}}
\newlabel{fig1}{{1}{2}}
\@writefile{toc}{\contentsline {subsection}{\numberline {\unhbox \voidb@x \hbox {IV-A}}Load balancing module}{3}}
\@writefile{lof}{\contentsline {figure}{\numberline {2}{\ignorespaces Load balancing module.}}{3}}
\newlabel{fig2}{{2}{3}}
\@writefile{toc}{\contentsline {subsection}{\numberline {\unhbox \voidb@x \hbox {IV-B}}Web application module}{3}}
\@writefile{lof}{\contentsline {figure}{\numberline {3}{\ignorespaces Web application architecture.}}{3}}
\newlabel{fig3}{{3}{3}}
\@writefile{toc}{\contentsline {section}{\numberline {V}Tools and technologies}{3}}
\@writefile{toc}{\contentsline {subsection}{\numberline {\unhbox \voidb@x \hbox {V-A}}Controller}{3}}
\@writefile{toc}{\contentsline {subsection}{\numberline {\unhbox \voidb@x \hbox {V-B}}Switch}{3}}
\@writefile{toc}{\contentsline {subsection}{\numberline {\unhbox \voidb@x \hbox {V-C}}Client}{3}}
\citation{M18:Mininet}
\@writefile{toc}{\contentsline {subsection}{\numberline {\unhbox \voidb@x \hbox {V-D}}Server}{4}}
\@writefile{toc}{\contentsline {subsection}{\numberline {\unhbox \voidb@x \hbox {V-E}}Docker Container}{4}}
\@writefile{toc}{\contentsline {subsection}{\numberline {\unhbox \voidb@x \hbox {V-F}}Database}{4}}
\@writefile{toc}{\contentsline {subsection}{\numberline {\unhbox \voidb@x \hbox {V-G}}Mininet emulator}{4}}
\@writefile{toc}{\contentsline {subsection}{\numberline {\unhbox \voidb@x \hbox {V-H}}Openload}{4}}
\@writefile{lof}{\contentsline {figure}{\numberline {4}{\ignorespaces Experiment setup.}}{4}}
\newlabel{fig4}{{4}{4}}
\@writefile{toc}{\contentsline {section}{\numberline {VI}Experimental setup}{4}}
\@writefile{toc}{\contentsline {subsection}{\numberline {\unhbox \voidb@x \hbox {VI-A}}Setup}{4}}
\@writefile{lof}{\contentsline {figure}{\numberline {5}{\ignorespaces Flowchart describing the load balancer actions.}}{4}}
\newlabel{fig5}{{5}{4}}
\@writefile{toc}{\contentsline {subsection}{\numberline {\unhbox \voidb@x \hbox {VI-B}}Implementation}{4}}
\bibcite{HWG12:BalanceFlow}{1}
\bibcite{SOS13:SDN}{2}
\bibcite{KRV15:Software}{3}
\bibcite{M17:SDN}{4}
\bibcite{KKS15:Round}{5}
\@writefile{toc}{\contentsline {section}{\numberline {VII}Results and analyses}{5}}
\@writefile{lot}{\contentsline {table}{\numberline {I}{\ignorespaces Table depicting response time}}{5}}
\newlabel{tab1}{{I}{5}}
\@writefile{toc}{\contentsline {section}{\numberline {VIII}Conclusion}{5}}
\@writefile{lof}{\contentsline {figure}{\numberline {6}{\ignorespaces Performance.}}{5}}
\newlabel{fig6}{{6}{5}}
\@writefile{toc}{\contentsline {section}{References}{5}}
\bibcite{PSS14:Simulation}{6}
\bibcite{ANK17:Dynamic}{7}
\bibcite{GKJ16:Round}{8}
\bibcite{LJL10:Format}{9}
\bibcite{BG16:Advanced}{10}
\bibcite{LZG17:Efficient}{11}
\bibcite{SSC11:Enabling}{12}
\bibcite{MAB08:Openflow}{13}
\bibcite{M18:Mininet}{14}
\bibcite{AAK14:Fast}{15}
\bibcite{KMS15:Independent}{16}
